module fractarc

go 1.22.0

require gitlab.com/asvedr/cldi v0.6.0

require (
	github.com/davecgh/go-spew v1.1.1 // indirect
	github.com/pmezard/go-difflib v1.0.0 // indirect
	github.com/stretchr/objx v0.5.0 // indirect
	github.com/stretchr/testify v1.8.4 // indirect
	gopkg.in/yaml.v3 v3.0.1 // indirect
)
